{
    "env": {
        "MONGO_ATLAS_PW": "DesafioBackAlan",
        "JWT_KEY": "DesafioBackEnd",
        "MONGO_ATLAS_DB": "desafioBack",
        "MONGO_ATLAS_COMPLEMENT": "@desafioback-y82xo.mongodb.net/test?retryWrites=true&w=majority"
    }
}